%YAML 1.1
%TAG !u! tag:unity3d.com,2011:
--- !u!29 &1
OcclusionCullingSettings:
  m_ObjectHideFlags: 0
  serializedVersion: 2
  m_OcclusionBakeSettings:
    smallestOccluder: 5
    smallestHole: 0.25
    backfaceThreshold: 100
  m_SceneGUID: 00000000000000000000000000000000
  m_OcclusionCullingData: {fileID: 0}
--- !u!104 &2
RenderSettings:
  m_ObjectHideFlags: 0
  serializedVersion: 8
  m_Fog: 0
  m_FogColor: {r: 0.5, g: 0.5, b: 0.5, a: 1}
  m_FogMode: 3
  m_FogDensity: 0.01
  m_LinearFogStart: 0
  m_LinearFogEnd: 300
  m_AmbientSkyColor: {r: 0.212, g: 0.227, b: 0.259, a: 1}
  m_AmbientEquatorColor: {r: 0.114, g: 0.125, b: 0.133, a: 1}
  m_AmbientGroundColor: {r: 0.047, g: 0.043, b: 0.035, a: 1}
  m_AmbientIntensity: 1
  m_AmbientMode: 3
  m_SubtractiveShadowColor: {r: 0.42, g: 0.478, b: 0.627, a: 1}
  m_SkyboxMaterial: {fileID: 0}
  m_HaloStrength: 0.5
  m_FlareStrength: 1
  m_FlareFadeSpeed: 3
  m_HaloTexture: {fileID: 0}
  m_SpotCookie: {fileID: 10001, guid: 0000000000000000e000000000000000, type: 0}
  m_DefaultReflectionMode: 0
  m_DefaultReflectionResolution: 128
  m_ReflectionBounces: 1
  m_ReflectionIntensity: 1
  m_CustomReflection: {fileID: 0}
  m_Sun: {fileID: 0}
  m_IndirectSpecularColor: {r: 0, g: 0, b: 0, a: 1}
--- !u!157 &3
LightmapSettings:
  m_ObjectHideFlags: 0
  serializedVersion: 11
  m_GIWorkflowMode: 1
  m_GISettings:
    serializedVersion: 2
    m_BounceScale: 1
    m_IndirectOutputScale: 1
    m_AlbedoBoost: 1
    m_TemporalCoherenceThreshold: 1
    m_EnvironmentLightingMode: 0
    m_EnableBakedLightmaps: 0
    m_EnableRealtimeLightmaps: 0
  m_LightmapEditorSettings:
    serializedVersion: 9
    m_Resolution: 2
    m_BakeResolution: 40
    m_TextureWidth: 1024
    m_TextureHeight: 1024
    m_AO: 0
    m_AOMaxDistance: 1
    m_CompAOExponent: 1
    m_CompAOExponentDirect: 0
    m_Padding: 2
    m_LightmapParameters: {fileID: 0}
    m_LightmapsBakeMode: 1
    m_TextureCompression: 1
    m_FinalGather: 0
    m_FinalGatherFiltering: 1
    m_FinalGatherRayCount: 256
    m_ReflectionCompression: 2
    m_MixedBakeMode: 2
    m_BakeBackend: 0
    m_PVRSampling: 1
    m_PVRDirectSampleCount: 32
    m_PVRSampleCount: 500
    m_PVRBounces: 2
    m_PVRFilterTypeDirect: 0
    m_PVRFilterTypeIndirect: 0
    m_PVRFilterTypeAO: 0
    m_PVRFilteringMode: 1
    m_PVRCulling: 1
    m_PVRFilteringGaussRadiusDirect: 1
    m_PVRFilteringGaussRadiusIndirect: 5
    m_PVRFilteringGaussRadiusAO: 2
    m_PVRFilteringAtrousPositionSigmaDirect: 0.5
    m_PVRFilteringAtrousPositionSigmaIndirect: 2
    m_PVRFilteringAtrousPositionSigmaAO: 1
    m_ShowResolutionOverlay: 1
  m_LightingDataAsset: {fileID: 0}
  m_UseShadowmask: 1
--- !u!196 &4
NavMeshSettings:
  serializedVersion: 2
  m_ObjectHideFlags: 0
  m_BuildSettings:
    serializedVersion: 2
    agentTypeID: 0
    agentRadius: 0.5
    agentHeight: 2
    agentSlope: 45
    agentClimb: 0.4
    ledgeDropHeight: 0
    maxJumpAcrossDistance: 0
    minRegionArea: 2
    manualCellSize: 0
    cellSize: 0.16666667
    manualTileSize: 0
    tileSize: 256
    accuratePlacement: 0
    debug:
      m_Flags: 0
  m_NavMeshData: {fileID: 0}
--- !u!1 &840369878
GameObject:
  m_ObjectHideFlags: 0
  m_PrefabParentObject: {fileID: 0}
  m_PrefabInternal: {fileID: 0}
  serializedVersion: 5
  m_Component:
  - component: {fileID: 840369882}
  - component: {fileID: 840369881}
  - component: {fileID: 840369880}
  - component: {fileID: 840369879}
  m_Layer: 5
  m_Name: Canvas
  m_TagString: Untagged
  m_Icon: {fileID: 0}
  m_NavMeshLayer: 0
  m_StaticEditorFlags: 0
  m_IsActive: 1
--- !u!114 &840369879
MonoBehaviour:
  m_ObjectHideFlags: 0
  m_PrefabParentObject: {fileID: 0}
  m_PrefabInternal: {fileID: 0}
  m_GameObject: {fileID: 840369878}
  m_Enabled: 1
  m_EditorHideFlags: 0
  m_Script: {fileID: 1301386320, guid: f70555f144d8491a825f0804e09c671c, type: 3}
  m_Name: 
  m_EditorClassIdentifier: 
  m_IgnoreReversedGraphics: 1
  m_BlockingObjects: 0
  m_BlockingMask:
    serializedVersion: 2
    m_Bits: 4294967295
--- !u!114 &840369880
MonoBehaviour:
  m_ObjectHideFlags: 0
  m_PrefabParentObject: {fileID: 0}
  m_PrefabInternal: {fileID: 0}
  m_GameObject: {fileID: 840369878}
  m_Enabled: 1
  m_EditorHideFlags: 0
  m_Script: {fileID: 1980459831, guid: f70555f144d8491a825f0804e09c671c, type: 3}
  m_Name: 
  m_EditorClassIdentifier: 
  m_UiScaleMode: 1
  m_ReferencePixelsPerUnit: 100
  m_ScaleFactor: 1
  m_ReferenceResolution: {x: 1280, y: 720}
  m_ScreenMatchMode: 0
  m_MatchWidthOrHeight: 1
  m_PhysicalUnit: 3
  m_FallbackScreenDPI: 96
  m_DefaultSpriteDPI: 96
  m_DynamicPixelsPerUnit: 30
--- !u!223 &840369881
Canvas:
  m_ObjectHideFlags: 0
  m_PrefabParentObject: {fileID: 0}
  m_PrefabInternal: {fileID: 0}
  m_GameObject: {fileID: 840369878}
  m_Enabled: 1
  serializedVersion: 3
  m_RenderMode: 0
  m_Camera: {fileID: 0}
  m_PlaneDistance: 100
  m_PixelPerfect: 0
  m_ReceivesEvents: 1
  m_OverrideSorting: 0
  m_OverridePixelPerfect: 0
  m_SortingBucketNormalizedSize: 0
  m_AdditionalShaderChannelsFlag: 0
  m_SortingLayerID: 0
  m_SortingOrder: 0
  m_TargetDisplay: 0
--- !u!224 &840369882
RectTransform:
  m_ObjectHideFlags: 0
  m_PrefabParentObject: {fileID: 0}
  m_PrefabInternal: {fileID: 0}
  m_GameObject: {fileID: 840369878}
  m_LocalRotation: {x: 0, y: 0, z: 0, w: 1}
  m_LocalPosition: {x: 0, y: 0, z: 0}
  m_LocalScale: {x: 0, y: 0, z: 0}
  m_Children:
  - {fileID: 2105938592}
  m_Father: {fileID: 0}
  m_RootOrder: 1
  m_LocalEulerAnglesHint: {x: 0, y: 0, z: 0}
  m_AnchorMin: {x: 0, y: 0}
  m_AnchorMax: {x: 0, y: 0}
  m_AnchoredPosition: {x: 0, y: 0}
  m_SizeDelta: {x: 0, y: 0}
  m_Pivot: {x: 0, y: 0}
--- !u!1 &1145349036
GameObject:
  m_ObjectHideFlags: 0
  m_PrefabParentObject: {fileID: 0}
  m_PrefabInternal: {fileID: 0}
  serializedVersion: 5
  m_Component:
  - component: {fileID: 1145349040}
  - component: {fileID: 1145349039}
  - component: {fileID: 1145349038}
  - component: {fileID: 1145349037}
  m_Layer: 0
  m_Name: Main Camera
  m_TagString: MainCamera
  m_Icon: {fileID: 0}
  m_NavMeshLayer: 0
  m_StaticEditorFlags: 0
  m_IsActive: 1
--- !u!81 &1145349037
AudioListener:
  m_ObjectHideFlags: 0
  m_PrefabParentObject: {fileID: 0}
  m_PrefabInternal: {fileID: 0}
  m_GameObject: {fileID: 1145349036}
  m_Enabled: 1
--- !u!124 &1145349038
Behaviour:
  m_ObjectHideFlags: 0
  m_PrefabParentObject: {fileID: 0}
  m_PrefabInternal: {fileID: 0}
  m_GameObject: {fileID: 1145349036}
  m_Enabled: 1
--- !u!20 &1145349039
Camera:
  m_ObjectHideFlags: 0
  m_PrefabParentObject: {fileID: 0}
  m_PrefabInternal: {fileID: 0}
  m_GameObject: {fileID: 1145349036}
  m_Enabled: 1
  serializedVersion: 2
  m_ClearFlags: 1
  m_BackGroundColor: {r: 0.19215687, g: 0.3019608, b: 0.4745098, a: 0}
  m_NormalizedViewPortRect:
    serializedVersion: 2
    x: 0
    y: 0
    width: 1
    height: 1
  near clip plane: 1
  far clip plane: 640
  field of view: 60
  orthographic: 1
  orthographic size: 240
  m_Depth: -1
  m_CullingMask:
    serializedVersion: 2
    m_Bits: 4294967295
  m_RenderingPath: -1
  m_TargetTexture: {fileID: 0}
  m_TargetDisplay: 0
  m_TargetEye: 3
  m_HDR: 1
  m_AllowMSAA: 1
  m_AllowDynamicResolution: 0
  m_ForceIntoRT: 0
  m_OcclusionCulling: 1
  m_StereoConvergence: 10
  m_StereoSeparation: 0.022
--- !u!4 &1145349040
Transform:
  m_ObjectHideFlags: 0
  m_PrefabParentObject: {fileID: 0}
  m_PrefabInternal: {fileID: 0}
  m_GameObject: {fileID: 1145349036}
  m_LocalRotation: {x: 0, y: 0, z: 0, w: 1}
  m_LocalPosition: {x: 0, y: 0, z: -200}
  m_LocalScale: {x: 1, y: 1, z: 1}
  m_Children: []
  m_Father: {fileID: 0}
  m_RootOrder: 0
  m_LocalEulerAnglesHint: {x: 0, y: 0, z: 0}
--- !u!1 &1414547355
GameObject:
  m_ObjectHideFlags: 0
  m_PrefabParentObject: {fileID: 0}
  m_PrefabInternal: {fileID: 0}
  serializedVersion: 5
  m_Component:
  - component: {fileID: 1414547356}
  - component: {fileID: 1414547357}
  - component: {fileID: 1414547358}
  m_Layer: 0
  m_Name: ScriptContainer
  m_TagString: Main
  m_Icon: {fileID: 0}
  m_NavMeshLayer: 0
  m_StaticEditorFlags: 0
  m_IsActive: 1
--- !u!4 &1414547356
Transform:
  m_ObjectHideFlags: 0
  m_PrefabParentObject: {fileID: 0}
  m_PrefabInternal: {fileID: 0}
  m_GameObject: {fileID: 1414547355}
  m_LocalRotation: {x: 0, y: 0, z: 0, w: 1}
  m_LocalPosition: {x: 0, y: 0, z: 0}
  m_LocalScale: {x: 1, y: 1, z: 1}
  m_Children: []
  m_Father: {fileID: 0}
  m_RootOrder: 3
  m_LocalEulerAnglesHint: {x: 0, y: 0, z: 0}
--- !u!114 &1414547357
MonoBehaviour:
  m_ObjectHideFlags: 0
  m_PrefabParentObject: {fileID: 0}
  m_PrefabInternal: {fileID: 0}
  m_GameObject: {fileID: 1414547355}
  m_Enabled: 1
  m_EditorHideFlags: 0
  m_Script: {fileID: 11500000, guid: 86711f0b7297ffc45bca38c48b0ceaff, type: 3}
  m_Name: 
  m_EditorClassIdentifier: 
  jigsawName:
  - jigsaw_00
  - jigsaw_01
  - jigsaw_02
  - jigsaw_03
  - jigsaw_04
  - jigsaw_05
  piece: {fileID: 1265772158317536, guid: 84a16618bbf97ec4282a0000446518ac, type: 2}
  parentPos: {fileID: 2105938593}
  _pieceList: []
  imgList: []
  curIndex: 0
  unlockedLevel: 5
  answer: 
  win: 0
  lvl: level_09
  menu: main_09
--- !u!82 &1414547358
AudioSource:
  m_ObjectHideFlags: 0
  m_PrefabParentObject: {fileID: 0}
  m_PrefabInternal: {fileID: 0}
  m_GameObject: {fileID: 1414547355}
  m_Enabled: 1
  serializedVersion: 4
  OutputAudioMixerGroup: {fileID: 0}
  m_audioClip: {fileID: 8300000, guid: 6d39fb094c6cf1842a0229d567427170, type: 3}
  m_PlayOnAwake: 1
  m_Volume: 1
  m_Pitch: 1
  Loop: 1
  Mute: 0
  Spatialize: 0
  SpatializePostEffects: 0
  Priority: 128
  DopplerLevel: 1
  MinDistance: 1
  MaxDistance: 500
  Pan2D: 0
  rolloffMode: 0
  BypassEffects: 0
  BypassListenerEffects: 0
  BypassReverbZones: 0
  rolloffCustomCurve:
    serializedVersion: 2
    m_Curve:
    - serializedVersion: 2
      time: 0
      value: 1
      inSlope: 0
      outSlope: 0
      tangentMode: 0
    - serializedVersion: 2
      time: 1
      value: 0
      inSlope: 0
      outSlope: 0
      tangentMode: 0
    m_PreInfinity: 2
    m_PostInfinity: 2
    m_RotationOrder: 4
  panLevelCustomCurve:
    serializedVersion: 2
    m_Curve:
    - serializedVersion: 2
      time: 0
      value: 0
      inSlope: 0
      outSlope: 0
      tangentMode: 0
    m_PreInfinity: 2
    m_PostInfinity: 2
    m_RotationOrder: 0
  spreadCustomCurve:
    serializedVersion: 2
    m_Curve:
    - serializedVersion: 2
      time: 0
      value: 0
      inSlope: 0
      outSlope: 0
      tangentMode: 0
    m_PreInfinity: 2
    m_PostInfinity: 2
    m_RotationOrder: 4
  reverbZoneMixCustomCurve:
    serializedVersion: 2
    m_Curve:
    - serializedVersion: 2
      time: 0
      value: 1
      inSlope: 0
      outSlope: 0
      tangentMode: 0
    m_PreInfinity: 2
    m_PostInfinity: 2
    m_RotationOrder: 0
--- !u!1 &1900069744
GameObject:
  m_ObjectHideFlags: 0
  m_PrefabParentObject: {fileID: 0}
  m_PrefabInternal: {fileID: 0}
  serializedVersion: 5
  m_Component:
  - component: {fileID: 1900069747}
  - component: {fileID: 1900069746}
  - component: {fileID: 1900069745}
  m_Layer: 0
  m_Name: EventSystem
  m_TagString: Untagged
  m_Icon: {fileID: 0}
  m_NavMeshLayer: 0
  m_StaticEditorFlags: 0
  m_IsActive: 1
--- !u!114 &1900069745
MonoBehaviour:
  m_ObjectHideFlags: 0
  m_PrefabParentObject: {fileID: 0}
  m_PrefabInternal: {fileID: 0}
  m_GameObject: {fileID: 1900069744}
  m_Enabled: 1
  m_EditorHideFlags: 0
  m_Script: {fileID: 1077351063, guid: f70555f144d8491a825f0804e09c671c, type: 3}
  m_Name: 
  m_EditorClassIdentifier: 
  m_HorizontalAxis: Horizontal
  m_VerticalAxis: Vertical
  m_SubmitButton: Submit
  m_CancelButton: Cancel
  m_InputActionsPerSecond: 10
  m_RepeatDelay: 0.5
  m_ForceModuleActive: 0
--- !u!114 &1900069746
MonoBehaviour:
  m_ObjectHideFlags: 0
  m_PrefabParentObject: {fileID: 0}
  m_PrefabInternal: {fileID: 0}
  m_GameObject: {fileID: 1900069744}
  m_Enabled: 1
  m_EditorHideFlags: 0
  m_Script: {fileID: -619905303, guid: f70555f144d8491a825f0804e09c671c, type: 3}
  m_Name: 
  m_EditorClassIdentifier: 
  m_FirstSelected: {fileID: 0}
  m_sendNavigationEvents: 1
  m_DragThreshold: 5
--- !u!4 &1900069747
Transform:
  m_ObjectHideFlags: 0
  m_PrefabParentObject: {fileID: 0}
  m_PrefabInternal: {fileID: 0}
  m_GameObject: {fileID: 1900069744}
  m_LocalRotation: {x: 0, y: 0, z: 0, w: 1}
  m_LocalPosition: {x: 0, y: 0, z: 0}
  m_LocalScale: {x: 1, y: 1, z: 1}
  m_Children: []
  m_Father: {fileID: 0}
  m_RootOrder: 2
  m_LocalEulerAnglesHint: {x: 0, y: 0, z: 0}
--- !u!1001 &2105938591
Prefab:
  m_ObjectHideFlags: 0
  serializedVersion: 2
  m_Modification:
    m_TransformParent: {fileID: 840369882}
    m_Modifications:
    - target: {fileID: 224727473322071574, guid: 1219ec3d0dd094644a46bba00d9cbc3d,
        type: 2}
      propertyPath: m_LocalPosition.x
      value: 0
      objectReference: {fileID: 0}
    - target: {fileID: 224727473322071574, guid: 1219ec3d0dd094644a46bba00d9cbc3d,
        type: 2}
      propertyPath: m_LocalPosition.y
      value: 0
      objectReference: {fileID: 0}
    - target: {fileID: 224727473322071574, guid: 1219ec3d0dd094644a46bba00d9cbc3d,
        type: 2}
      propertyPath: m_LocalPosition.z
      value: 199.99997
      objectReference: {fileID: 0}
    - target: {fileID: 224727473322071574, guid: 1219ec3d0dd094644a46bba00d9cbc3d,
        type: 2}
      propertyPath: m_LocalRotation.x
      value: 0
      objectReference: {fileID: 0}
    - target: {fileID: 224727473322071574, guid: 1219ec3d0dd094644a46bba00d9cbc3d,
        type: 2}
      propertyPath: m_LocalRotation.y
      value: 0
      objectReference: {fileID: 0}
    - target: {fileID: 224727473322071574, guid: 1219ec3d0dd094644a46bba00d9cbc3d,
        type: 2}
      propertyPath: m_LocalRotation.z
      value: 0
      objectReference: {fileID: 0}
    - target: {fileID: 224727473322071574, guid: 1219ec3d0dd094644a46bba00d9cbc3d,
        type: 2}
      propertyPath: m_LocalRotation.w
      value: 1
      objectReference: {fileID: 0}
    - target: {fileID: 224727473322071574, guid: 1219ec3d0dd094644a46bba00d9cbc3d,
        type: 2}
      propertyPath: m_RootOrder
      value: 0
      objectReference: {fileID: 0}
    - target: {fileID: 224727473322071574, guid: 1219ec3d0dd094644a46bba00d9cbc3d,
        type: 2}
      propertyPath: m_AnchoredPosition.x
      value: 0
      objectReference: {fileID: 0}
    - target: {fileID: 224727473322071574, guid: 1219ec3d0dd094644a46bba00d9cbc3d,
        type: 2}
      propertyPath: m_AnchoredPosition.y
      value: 0
      objectReference: {fileID: 0}
    - target: {fileID: 224727473322071574, guid: 1219ec3d0dd094644a46bba00d9cbc3d,
        type: 2}
      propertyPath: m_SizeDelta.x
      value: 0
      objectReference: {fileID: 0}
    - target: {fileID: 224727473322071574, guid: 1219ec3d0dd094644a46bba00d9cbc3d,
        type: 2}
      propertyPath: m_SizeDelta.y
      value: 0
      objectReference: {fileID: 0}
    - target: {fileID: 224727473322071574, guid: 1219ec3d0dd094644a46bba00d9cbc3d,
        type: 2}
      propertyPath: m_AnchorMin.x
      value: 0
      objectReference: {fileID: 0}
    - target: {fileID: 224727473322071574, guid: 1219ec3d0dd094644a46bba00d9cbc3d,
        type: 2}
      propertyPath: m_AnchorMin.y
      value: 0
      objectReference: {fileID: 0}
    - target: {fileID: 224727473322071574, guid: 1219ec3d0dd094644a46bba00d9cbc3d,
        type: 2}
      propertyPath: m_AnchorMax.x
      value: 1
      objectReference: {fileID: 0}
    - target: {fileID: 224727473322071574, guid: 1219ec3d0dd094644a46bba00d9cbc3d,
        type: 2}
      propertyPath: m_AnchorMax.y
      value: 1
      objectReference: {fileID: 0}
    - target: {fileID: 224727473322071574, guid: 1219ec3d0dd094644a46bba00d9cbc3d,
        type: 2}
      propertyPath: m_Pivot.x
      value: 0.5
      objectReference: {fileID: 0}
    - target: {fileID: 224727473322071574, guid: 1219ec3d0dd094644a46bba00d9cbc3d,
        type: 2}
      propertyPath: m_Pivot.y
      value: 0.5
      objectReference: {fileID: 0}
    - target: {fileID: 114154728256459812, guid: 1219ec3d0dd094644a46bba00d9cbc3d,
        type: 2}
      propertyPath: mainContainer
      value: 
      objectReference: {fileID: 1414547355}
    - target: {fileID: 114170025532218648, guid: 1219ec3d0dd094644a46bba00d9cbc3d,
        type: 2}
      propertyPath: mainContainer
      value: 
      objectReference: {fileID: 1414547355}
    - target: {fileID: 114025741792596930, guid: 1219ec3d0dd094644a46bba00d9cbc3d,
        type: 2}
      propertyPath: mainContainer
      value: 
      objectReference: {fileID: 1414547355}
    - target: {fileID: 114613235068653596, guid: 1219ec3d0dd094644a46bba00d9cbc3d,
        type: 2}
      propertyPath: mainContainer
      value: 
      objectReference: {fileID: 1414547355}
    - target: {fileID: 114262640881229354, guid: 1219ec3d0dd094644a46bba00d9cbc3d,
        type: 2}
      propertyPath: mainContainer
      value: 
      objectReference: {fileID: 1414547355}
    - target: {fileID: 114206928957480484, guid: 1219ec3d0dd094644a46bba00d9cbc3d,
        type: 2}
      propertyPath: mainContainer
      value: 
      objectReference: {fileID: 1414547355}
    - target: {fileID: 114418985588002280, guid: 1219ec3d0dd094644a46bba00d9cbc3d,
        type: 2}
      propertyPath: mainContainer
      value: 
      objectReference: {fileID: 1414547355}
    - target: {fileID: 114843936660995112, guid: 1219ec3d0dd094644a46bba00d9cbc3d,
        type: 2}
      propertyPath: mainContainer
      value: 
      objectReference: {fileID: 1414547355}
    - target: {fileID: 114935128219476368, guid: 1219ec3d0dd094644a46bba00d9cbc3d,
        type: 2}
      propertyPath: mainContainer
      value: 
      objectReference: {fileID: 1414547355}
    - target: {fileID: 1005905173922438, guid: 1219ec3d0dd094644a46bba00d9cbc3d, type: 2}
      propertyPath: m_IsActive
      value: 0
      objectReference: {fileID: 0}
    - target: {fileID: 224055263566212234, guid: 1219ec3d0dd094644a46bba00d9cbc3d,
        type: 2}
      propertyPath: m_AnchorMin.y
      value: 1
      objectReference: {fileID: 0}
    - target: {fileID: 224055263566212234, guid: 1219ec3d0dd094644a46bba00d9cbc3d,
        type: 2}
      propertyPath: m_AnchorMax.y
      value: 1
      objectReference: {fileID: 0}
    - target: {fileID: 224055263566212234, guid: 1219ec3d0dd094644a46bba00d9cbc3d,
        type: 2}
      propertyPath: m_AnchoredPosition.x
      value: 55
      objectReference: {fileID: 0}
    - target: {fileID: 224055263566212234, guid: 1219ec3d0dd094644a46bba00d9cbc3d,
        type: 2}
      propertyPath: m_AnchoredPosition.y
      value: -55
      objectReference: {fileID: 0}
    - target: {fileID: 224055263566212234, guid: 1219ec3d0dd094644a46bba00d9cbc3d,
        type: 2}
      propertyPath: m_SizeDelta.x
      value: 65
      objectReference: {fileID: 0}
    - target: {fileID: 224055263566212234, guid: 1219ec3d0dd094644a46bba00d9cbc3d,
        type: 2}
      propertyPath: m_SizeDelta.y
      value: 65
      objectReference: {fileID: 0}
    - target: {fileID: 224704166909169734, guid: 1219ec3d0dd094644a46bba00d9cbc3d,
        type: 2}
      propertyPath: m_AnchorMin.y
      value: 1
      objectReference: {fileID: 0}
    - target: {fileID: 224704166909169734, guid: 1219ec3d0dd094644a46bba00d9cbc3d,
        type: 2}
      propertyPath: m_AnchorMax.y
      value: 1
      objectReference: {fileID: 0}
    - target: {fileID: 224704166909169734, guid: 1219ec3d0dd094644a46bba00d9cbc3d,
        type: 2}
      propertyPath: m_AnchoredPosition.x
      value: 120
      objectReference: {fileID: 0}
    - target: {fileID: 224704166909169734, guid: 1219ec3d0dd094644a46bba00d9cbc3d,
        type: 2}
      propertyPath: m_AnchoredPosition.y
      value: -55
      objectReference: {fileID: 0}
    - target: {fileID: 224704166909169734, guid: 1219ec3d0dd094644a46bba00d9cbc3d,
        type: 2}
      propertyPath: m_SizeDelta.x
      value: 65
      objectReference: {fileID: 0}
    - target: {fileID: 224704166909169734, guid: 1219ec3d0dd094644a46bba00d9cbc3d,
        type: 2}
      propertyPath: m_SizeDelta.y
      value: 65
      objectReference: {fileID: 0}
    - target: {fileID: 224971356667858342, guid: 1219ec3d0dd094644a46bba00d9cbc3d,
        type: 2}
      propertyPath: m_AnchorMin.y
      value: 1
      objectReference: {fileID: 0}
    - target: {fileID: 224971356667858342, guid: 1219ec3d0dd094644a46bba00d9cbc3d,
        type: 2}
      propertyPath: m_AnchorMax.y
      value: 1
      objectReference: {fileID: 0}
    - target: {fileID: 224971356667858342, guid: 1219ec3d0dd094644a46bba00d9cbc3d,
        type: 2}
      propertyPath: m_AnchoredPosition.x
      value: 185
      objectReference: {fileID: 0}
    - target: {fileID: 224971356667858342, guid: 1219ec3d0dd094644a46bba00d9cbc3d,
        type: 2}
      propertyPath: m_AnchoredPosition.y
      value: -55
      objectReference: {fileID: 0}
    - target: {fileID: 224971356667858342, guid: 1219ec3d0dd094644a46bba00d9cbc3d,
        type: 2}
      propertyPath: m_SizeDelta.x
      value: 65
      objectReference: {fileID: 0}
    - target: {fileID: 224971356667858342, guid: 1219ec3d0dd094644a46bba00d9cbc3d,
        type: 2}
      propertyPath: m_SizeDelta.y
      value: 65
      objectReference: {fileID: 0}
    - target: {fileID: 224980956830615930, guid: 1219ec3d0dd094644a46bba00d9cbc3d,
        type: 2}
      propertyPath: m_AnchorMin.y
      value: 1
      objectReference: {fileID: 0}
    - target: {fileID: 224980956830615930, guid: 1219ec3d0dd094644a46bba00d9cbc3d,
        type: 2}
      propertyPath: m_AnchorMax.y
      value: 1
      objectReference: {fileID: 0}
    - target: {fileID: 224980956830615930, guid: 1219ec3d0dd094644a46bba00d9cbc3d,
        type: 2}
      propertyPath: m_AnchoredPosition.x
      value: 55
      objectReference: {fileID: 0}
    - target: {fileID: 224980956830615930, guid: 1219ec3d0dd094644a46bba00d9cbc3d,
        type: 2}
      propertyPath: m_AnchoredPosition.y
      value: -120
      objectReference: {fileID: 0}
    - target: {fileID: 224980956830615930, guid: 1219ec3d0dd094644a46bba00d9cbc3d,
        type: 2}
      propertyPath: m_SizeDelta.x
      value: 65
      objectReference: {fileID: 0}
    - target: {fileID: 224980956830615930, guid: 1219ec3d0dd094644a46bba00d9cbc3d,
        type: 2}
      propertyPath: m_SizeDelta.y
      value: 65
      objectReference: {fileID: 0}
    - target: {fileID: 224790870756054516, guid: 1219ec3d0dd094644a46bba00d9cbc3d,
        type: 2}
      propertyPath: m_AnchorMin.y
      value: 1
      objectReference: {fileID: 0}
    - target: {fileID: 224790870756054516, guid: 1219ec3d0dd094644a46bba00d9cbc3d,
        type: 2}
      propertyPath: m_AnchorMax.y
      value: 1
      objectReference: {fileID: 0}
    - target: {fileID: 224790870756054516, guid: 1219ec3d0dd094644a46bba00d9cbc3d,
        type: 2}
      propertyPath: m_AnchoredPosition.x
      value: 120
      objectReference: {fileID: 0}
    - target: {fileID: 224790870756054516, guid: 1219ec3d0dd094644a46bba00d9cbc3d,
        type: 2}
      propertyPath: m_AnchoredPosition.y
      value: -120
      objectReference: {fileID: 0}
    - target: {fileID: 224790870756054516, guid: 1219ec3d0dd094644a46bba00d9cbc3d,
        type: 2}
      propertyPath: m_SizeDelta.x
      value: 65
      objectReference: {fileID: 0}
    - target: {fileID: 224790870756054516, guid: 1219ec3d0dd094644a46bba00d9cbc3d,
        type: 2}
      propertyPath: m_SizeDelta.y
      value: 65
      objectReference: {fileID: 0}
    - target: {fileID: 224930339323436698, guid: 1219ec3d0dd094644a46bba00d9cbc3d,
        type: 2}
      propertyPath: m_AnchorMin.y
      value: 1
      objectReference: {fileID: 0}
    - target: {fileID: 224930339323436698, guid: 1219ec3d0dd094644a46bba00d9cbc3d,
        type: 2}
      propertyPath: m_AnchorMax.y
      value: 1
      objectReference: {fileID: 0}
    - target: {fileID: 224930339323436698, guid: 1219ec3d0dd094644a46bba00d9cbc3d,
        type: 2}
      propertyPath: m_AnchoredPosition.x
      value: 185
      objectReference: {fileID: 0}
    - target: {fileID: 224930339323436698, guid: 1219ec3d0dd094644a46bba00d9cbc3d,
        type: 2}
      propertyPath: m_AnchoredPosition.y
      value: -120
      objectReference: {fileID: 0}
    - target: {fileID: 224930339323436698, guid: 1219ec3d0dd094644a46bba00d9cbc3d,
        type: 2}
      propertyPath: m_SizeDelta.x
      value: 65
      objectReference: {fileID: 0}
    - target: {fileID: 224930339323436698, guid: 1219ec3d0dd094644a46bba00d9cbc3d,
        type: 2}
      propertyPath: m_SizeDelta.y
      value: 65
      objectReference: {fileID: 0}
    - target: {fileID: 224779530267896270, guid: 1219ec3d0dd094644a46bba00d9cbc3d,
        type: 2}
      propertyPath: m_AnchorMin.y
      value: 1
      objectReference: {fileID: 0}
    - target: {fileID: 224779530267896270, guid: 1219ec3d0dd094644a46bba00d9cbc3d,
        type: 2}
      propertyPath: m_AnchorMax.y
      value: 1
      objectReference: {fileID: 0}
    - target: {fileID: 224779530267896270, guid: 1219ec3d0dd094644a46bba00d9cbc3d,
        type: 2}
      propertyPath: m_AnchoredPosition.x
      value: 55
      objectReference: {fileID: 0}
    - target: {fileID: 224779530267896270, guid: 1219ec3d0dd094644a46bba00d9cbc3d,
        type: 2}
      propertyPath: m_AnchoredPosition.y
      value: -185
      objectReference: {fileID: 0}
    - target: {fileID: 224779530267896270, guid: 1219ec3d0dd094644a46bba00d9cbc3d,
        type: 2}
      propertyPath: m_SizeDelta.x
      value: 65
      objectReference: {fileID: 0}
    - target: {fileID: 224779530267896270, guid: 1219ec3d0dd094644a46bba00d9cbc3d,
        type: 2}
      propertyPath: m_SizeDelta.y
      value: 65
      objectReference: {fileID: 0}
    - target: {fileID: 224842237251814522, guid: 1219ec3d0dd094644a46bba00d9cbc3d,
        type: 2}
      propertyPath: m_AnchorMin.y
      value: 1
      objectReference: {fileID: 0}
    - target: {fileID: 224842237251814522, guid: 1219ec3d0dd094644a46bba00d9cbc3d,
        type: 2}
      propertyPath: m_AnchorMax.y
      value: 1
      objectReference: {fileID: 0}
    - target: {fileID: 224842237251814522, guid: 1219ec3d0dd094644a46bba00d9cbc3d,
        type: 2}
      propertyPath: m_AnchoredPosition.x
      value: 120
      objectReference: {fileID: 0}
    - target: {fileID: 224842237251814522, guid: 1219ec3d0dd094644a46bba00d9cbc3d,
        type: 2}
      propertyPath: m_AnchoredPosition.y
      value: -185
      objectReference: {fileID: 0}
    - target: {fileID: 224842237251814522, guid: 1219ec3d0dd094644a46bba00d9cbc3d,
        type: 2}
      propertyPath: m_SizeDelta.x
      value: 65
      objectReference: {fileID: 0}
    - target: {fileID: 224842237251814522, guid: 1219ec3d0dd094644a46bba00d9cbc3d,
        type: 2}
      propertyPath: m_SizeDelta.y
      value: 65
      objectReference: {fileID: 0}
    - target: {fileID: 224790531398037048, guid: 1219ec3d0dd094644a46bba00d9cbc3d,
        type: 2}
      propertyPath: m_AnchorMin.y
      value: 1
      objectReference: {fileID: 0}
    - target: {fileID: 224790531398037048, guid: 1219ec3d0dd094644a46bba00d9cbc3d,
        type: 2}
      propertyPath: m_AnchorMax.y
      value: 1
      objectReference: {fileID: 0}
    - target: {fileID: 224790531398037048, guid: 1219ec3d0dd094644a46bba00d9cbc3d,
        type: 2}
      propertyPath: m_AnchoredPosition.x
      value: 185
      objectReference: {fileID: 0}
    - target: {fileID: 224790531398037048, guid: 1219ec3d0dd094644a46bba00d9cbc3d,
        type: 2}
      propertyPath: m_AnchoredPosition.y
      value: -185
      objectReference: {fileID: 0}
    - target: {fileID: 224790531398037048, guid: 1219ec3d0dd094644a46bba00d9cbc3d,
        type: 2}
      propertyPath: m_SizeDelta.x
      value: 65
      objectReference: {fileID: 0}
    - target: {fileID: 224790531398037048, guid: 1219ec3d0dd094644a46bba00d9cbc3d,
        type: 2}
      propertyPath: m_SizeDelta.y
      value: 65
      objectReference: {fileID: 0}
    - target: {fileID: 114405710642171814, guid: 1219ec3d0dd094644a46bba00d9cbc3d,
        type: 2}
      propertyPath: m_OnClick.m_PersistentCalls.m_Calls.Array.data[0].m_Target
      value: 
      objectReference: {fileID: 1414547357}
    - target: {fileID: 114405710642171814, guid: 1219ec3d0dd094644a46bba00d9cbc3d,
        type: 2}
      propertyPath: m_OnClick.m_PersistentCalls.m_Calls.Array.data[0].m_MethodName
      value: next
      objectReference: {fileID: 0}
    m_RemovedComponents: []
  m_ParentPrefab: {fileID: 100100000, guid: 1219ec3d0dd094644a46bba00d9cbc3d, type: 2}
  m_IsPrefabParent: 0
--- !u!224 &2105938592 stripped
RectTransform:
  m_PrefabParentObject: {fileID: 224727473322071574, guid: 1219ec3d0dd094644a46bba00d9cbc3d,
    type: 2}
  m_PrefabInternal: {fileID: 2105938591}
--- !u!224 &2105938593 stripped
RectTransform:
  m_PrefabParentObject: {fileID: 224001461915010714, guid: 1219ec3d0dd094644a46bba00d9cbc3d,
    type: 2}
  m_PrefabInternal: {fileID: 2105938591}
